{
  "kind": "collectionType",
  "collectionName": "vegetables",
  "info": {
    "name": "Vegetable",
    "description": ""
  },
  "options": {
    "increments": true,
    "timestamps": true,
    "draftAndPublish": false
  },
  "pluginOptions": {
    "i18n": {
      "localized": true
    }
  },
  "attributes": {
    "name": {
      "type": "string",
      "required": true,
      "maxLength": 100,
      "unique": true,
      "pluginOptions": {
        "i18n": {
          "localized": true
        }
      }
    },
    "picture": {
      "model": "file",
      "via": "related",
      "allowedTypes": [
        "images"
      ],
      "plugin": "upload",
      "required": true,
      "pluginOptions": {
        "i18n": {
          "localized": true
        }
      }
    },
    "harvests": {
      "via": "vegetable",
      "collection": "harvest"
    }
  }
}
